nom,prenom,affiliation,email,titre,fichier
Lenart,Ewa,université de Paris VIII,ewa.lenart@univ-paris8.fr,Les enjeux de l'enseignement/apprentissage des langues étrangères à l'école primaire,lenart.tex
Hellerstedt,Maria,université de Lille III,maria.hellerstedt@univ-lille3.fr,Se mettre en position pour apprendre le suédois,hellerstedt.tex
